ST 558 Project 1
…
plot.census <- function(cens_tibble,num_var,cat_var) {
  ggplot(cens_tibble,aes(x=get(cat_var), y=get(num_var), weight=PWGTP)) + geom_boxplot() + xlab(cat_var) + ylab(num_var) + scale_x_discrete(guide = guide_axis(n.dodge=3))

}

Testing our functions

Let’s say we wanted to explore age and school enrollment, just for the year 2019, in the Northeast region (geo_code = 01). We’ll call our API function, get_PUMS_API, for the year 2019 and specify that the variable for school enrollment (SCH) should be included and that the default variable SEX should be excluded:

    our_PUMS_data_1<-get_PUMS_API(yr=2019, SCH=TRUE, SEX=FALSE, geography = 'region',geo_code = 01)

    our_PUMS_data_1

# A tibble: 566,977 × 4
   PWGTP  AGEP region SCH                                          
   <dbl> <dbl> <chr>  <chr>                                        
 1    10    85 1      No, has not attended in the last 3 months    
 2    11    16 1      Yes, public school or public college         
 3    33    71 1      No, has not attended in the last 3 months    
 4    80    19 1      Yes, private school or college or home school
 5    37    83 1      No, has not attended in the last 3 months    
 6    77    60 1      No, has not attended in the last 3 months    
 7    78    18 1      Yes, public school or public college         
 8    71    79 1      No, has not attended in the last 3 months    
 9    17    20 1      Yes, public school or public college         
10    73    20 1      Yes, public school or public college         
# ℹ 566,967 more rows
…
The box plot indicates, not surprisingly, that the median age of those who have not been enrolled in school for the past 3 months is around 50 years, while those who have been enrolled in school have a median age of less than 25. Even so, we see that some people have been recently enrolled up to ages approaching 100.

Now suppose we want to know about age and school enrollment in the Northeast region in the years 2017, 2018, and 2022. We’ll use our multi-year function, pums_years, to call the AGEP variable and SCH and set the geography to “region” and the geography code to “1” (Northeast). We’ll also provide it with the list of years.

our_PUMS_data_2 <- pums_years(yr_list=c(2017,2018,2022),AGEP=TRUE, SCH=TRUE, geography='region',geo_code= 01)

our_PUMS_data_2

# A tibble: 1,711,878 × 6
   PWGTP  AGEP region SCH                                       SEX     year
   <dbl> <dbl> <chr>  <chr>                                     <chr>  <dbl>
 1    55    34 1      No, has not attended in the last 3 months Female  2017
 2    56    34 1      No, has not attended in the last 3 months Male    2017
 3    48    10 1      Yes, public school or public college      Male    2017
 4    51     5 1      Yes, public school or public college      Male    2017
 5    72    76 1      No, has not attended in the last 3 months Male    2017
 6    69    74 1      No, has not attended in the last 3 months Female  2017
 7    77    53 1      No, has not attended in the last 3 months Female  2017
 8    97    51 1      No, has not attended in the last 3 months Male    2017
 9    84    26 1      No, has not attended in the last 3 months Male    2017
10    88    22 1      Yes, public school or public college      Male    2017
# ℹ 1,711,868 more rows
…
